[{"id":1,"nombre":"Carlos","apellido":"Capmany","email":"carlos.capmany@bbva.com","password":"12345"},
{"id":2,"nombre":"Alberto","apellido":"Cuesta","email":"alberto.cuesta@bbva.com","password":"54321"},
{"id":3,"nombre":"Osbourne","apellido":"Anaëlle","email":"omicklewright2@unc.edu","password":"PlC2p20RiZ"},
{"id":4,"nombre":"Hurley","apellido":"Åke","email":"hwoodfin3@hud.gov","password":"uZxsh79ZcXb"},
{"id":5,"nombre":"Myrle","apellido":"Marie-thérèse","email":"mbrattell4@list-manage.com","password":"8xEEtNdZ53ZT"},
{"id":6,"nombre":"Lucinda","apellido":"Mélodie","email":"layris5@rakuten.co.jp","password":"xE4WzMx4A"},
{"id":7,"nombre":"Marco","apellido":"Táng","email":"mcouve6@devhub.com","password":"x1hBuyxj"},
{"id":8,"nombre":"Lorette","apellido":"Mén","email":"lscarfe7@g.co","password":"EL1LXOY6h"},
{"id":9,"nombre":"Alidia","apellido":"Françoise","email":"asay8@biblegateway.com","password":"zA9fBRjT"},
{"id":10,"nombre":"Milt","apellido":"Örjan","email":"mwestwood9@google.com.au","password":"ni2ZLNSVhz"},
{"id":11,"nombre":"Marla","apellido":"Cécilia","email":"mwitseya@upenn.edu","password":"bVcqRPLoEtf6"},
{"id":12,"nombre":"Emyle","apellido":"Mén","email":"ehexamb@ycombinator.com","password":"eFAGEAqmP"},
{"id":13,"nombre":"Jewell","apellido":"Athéna","email":"jpurvissc@virginia.edu","password":"bJsssazk"},
{"id":14,"nombre":"Farlie","apellido":"Ruì","email":"fklusd@washington.edu","password":"kepkc3v2JFo9"},
{"id":15,"nombre":"Georgeanna","apellido":"Geneviève","email":"gdelacroixe@baidu.com","password":"3BfMWFYX87Jl"},
{"id":16,"nombre":"Jessa","apellido":"Aurélie","email":"jjirkaf@purevolume.com","password":"3ulme2FB4W"},
{"id":17,"nombre":"Nollie","apellido":"Méng","email":"nfranzkeg@opensource.org","password":"iXYBgcRQMRw"},
{"id":18,"nombre":"Francesca","apellido":"Intéressant","email":"fantczakh@artisteer.com","password":"U6lLqCAOa5X"},
{"id":19,"nombre":"Mayor","apellido":"Maëly","email":"mspinkei@senate.gov","password":"OWgkGoTu"},
{"id":20,"nombre":"Vassily","apellido":"Médiamass","email":"vsimenotj@whitehouse.gov","password":"8NBePmmynv"},
{"id":21,"nombre":"Nixie","apellido":"Anaëlle","email":"nwyndhamk@csmonitor.com","password":"eJ0u8lVB4mC"},
{"id":22,"nombre":"Minda","apellido":"Pénélope","email":"mairesl@examiner.com","password":"1JzJzUk7"},
{"id":23,"nombre":"Waverley","apellido":"Mélissandre","email":"wfostm@hubpages.com","password":"6nNPUE"},
{"id":24,"nombre":"Helsa","apellido":"Cécilia","email":"hkennifeckn@amazon.de","password":"q1UWG2n"},
{"id":25,"nombre":"Arvie","apellido":"Gisèle","email":"abergeo@dyndns.org","password":"5Tx0ZWno"},
{"id":26,"nombre":"Crawford","apellido":"Mylène","email":"cspurgep@jalbum.net","password":"I3cCfm6J"},
{"id":27,"nombre":"Maribel","apellido":"Françoise","email":"mdawidowitzq@printfriendly.com","password":"VspYZvdDLMC"},
{"id":28,"nombre":"Alessandro","apellido":"Marie-françoise","email":"ascotchbourouger@seattletimes.com","password":"en6lmQ8"},
{"id":29,"nombre":"Ewan","apellido":"Noémie","email":"ejozwiks@about.me","password":"BSz4v0rih"},
{"id":30,"nombre":"Karlene","apellido":"Dà","email":"kjouent@soundcloud.com","password":"CCTHQ5"},
{"id":31,"nombre":"Weider","apellido":"Intéressant","email":"wgrinyeru@wordpress.com","password":"WqWR9No"},
{"id":32,"nombre":"Cecilius","apellido":"Åslög","email":"calessandonev@desdev.cn","password":"XxhBVzSfsNky"},
{"id":33,"nombre":"Arabele","apellido":"Françoise","email":"agarriochw@intel.com","password":"RLSyRQhu"},
{"id":34,"nombre":"Stephanus","apellido":"Garçon","email":"smcilvaneyx@dell.com","password":"QjH1uu7pHVm"},
{"id":35,"nombre":"Marcelia","apellido":"Mélodie","email":"mkezary@last.fm","password":"IImzW0klPvBH"},
{"id":36,"nombre":"Katrina","apellido":"Andréanne","email":"kkleinsingerz@ning.com","password":"pUw4loH73ydC"},
{"id":37,"nombre":"Prince","apellido":"Faîtes","email":"pballach10@upenn.edu","password":"ziryJIFiDH6"},
{"id":38,"nombre":"Marrilee","apellido":"Anaël","email":"mtorvey11@cmu.edu","password":"bmSoNv"},
{"id":39,"nombre":"Betty","apellido":"Laurélie","email":"bclarridge12@phoca.cz","password":"IdpIQ2Pf"},
{"id":40,"nombre":"Trenna","apellido":"Thérèse","email":"tmccloughlin13@list-manage.com","password":"Rvz82JX"},
{"id":41,"nombre":"Burg","apellido":"Bérengère","email":"braven14@ihg.com","password":"EZXXFnN"},
{"id":42,"nombre":"Bink","apellido":"Marie-noël","email":"bmaiklem15@spiegel.de","password":"e2HKUZkqh"},
{"id":43,"nombre":"Kelly","apellido":"Simplifiés","email":"kjaneczek16@vinaora.com","password":"GIfUFKLlM"},
{"id":44,"nombre":"Laverna","apellido":"Gaïa","email":"lsanbrook17@elegantthemes.com","password":"PlArZhKml"},
{"id":45,"nombre":"Thaxter","apellido":"Lóng","email":"tdjorvic18@ycombinator.com","password":"rwjgSnsX"},
{"id":46,"nombre":"Jori","apellido":"Tú","email":"jdurling19@bbc.co.uk","password":"uFcKPTZv4"},
{"id":47,"nombre":"Phedra","apellido":"Célestine","email":"pmcnae1a@mediafire.com","password":"Dt4NeG"},
{"id":48,"nombre":"Rowan","apellido":"Salomé","email":"rfiander1b@cloudflare.com","password":"Q4C9IUVmkgSg"},
{"id":49,"nombre":"Colet","apellido":"Géraldine","email":"cbrodeau1c@va.gov","password":"9GveKL"},
{"id":50,"nombre":"Drucie","apellido":"Yú","email":"dkettridge1d@naver.com","password":"T1ZCkQ4BD5K"},
{"id":51,"nombre":"Randi","apellido":"Hélèna","email":"rbuyers1e@weibo.com","password":"edZT3tRs"},
{"id":52,"nombre":"Dulcie","apellido":"Marie-noël","email":"dnoades1f@yellowpages.com","password":"1akaaSnN4Jt"},
{"id":53,"nombre":"Dominique","apellido":"Ophélie","email":"dgyver1g@over-blog.com","password":"xVTL60w07M"},
{"id":54,"nombre":"Berti","apellido":"Yáo","email":"bgeffinger1h@reuters.com","password":"uYof9Pz"},
{"id":55,"nombre":"Emelen","apellido":"Bérénice","email":"ekuhnwald1i@npr.org","password":"Zpy5dQPq6bc"},
{"id":56,"nombre":"Bettine","apellido":"Rébecca","email":"bpabelik1j@dropbox.com","password":"VvmsMA"},
{"id":57,"nombre":"Roarke","apellido":"Miléna","email":"rcleere1k@oakley.com","password":"1J5nDEWw"},
{"id":58,"nombre":"Selle","apellido":"Loïs","email":"sduell1l@comsenz.com","password":"UR7HA9"},
{"id":59,"nombre":"Guss","apellido":"Stévina","email":"ggallahue1m@forbes.com","password":"ZjrKNWkJg7P"},
{"id":60,"nombre":"Vivien","apellido":"Mégane","email":"vciementini1n@plala.or.jp","password":"Vnw0GHSJU1ir"},
{"id":61,"nombre":"June","apellido":"Anaëlle","email":"jmccrachen1o@cbslocal.com","password":"vYbhW6SD9jdV"},
{"id":62,"nombre":"Bartholomew","apellido":"Táng","email":"bbeagin1p@netvibes.com","password":"WHhZVb"},
{"id":63,"nombre":"Adeline","apellido":"Joséphine","email":"amckinn1q@last.fm","password":"dIZbkP7h"},
{"id":64,"nombre":"Glynnis","apellido":"Edmée","email":"gtonn1r@friendfeed.com","password":"jUhpAQZT98yP"},
{"id":65,"nombre":"Biddie","apellido":"Desirée","email":"bheelis1s@unicef.org","password":"NU7NyP"},
{"id":66,"nombre":"Gorden","apellido":"Tán","email":"gkoschek1t@bigcartel.com","password":"7GXedia18AFc"},
{"id":67,"nombre":"Victoir","apellido":"Esbjörn","email":"vburrells1u@intel.com","password":"QV8Iv2uZdwN"},
{"id":68,"nombre":"Ado","apellido":"Eloïse","email":"amewes1v@woothemes.com","password":"mohBP7ERkf"},
{"id":69,"nombre":"Olimpia","apellido":"Mylène","email":"okesper1w@apple.com","password":"wQenDxjCTOqY"},
{"id":70,"nombre":"Teddie","apellido":"Rachèle","email":"tweavill1x@pinterest.com","password":"i87TVP3Py"},
{"id":71,"nombre":"June","apellido":"Andréanne","email":"jdaviddi1y@tuttocitta.it","password":"O4ifRsScbg"},
{"id":72,"nombre":"Grete","apellido":"Bécassine","email":"gglabach1z@nba.com","password":"p2GIqMVY5R"},
{"id":73,"nombre":"Whitaker","apellido":"Nélie","email":"wmaund20@google.co.jp","password":"t2KjyJO"},
{"id":74,"nombre":"Wynnie","apellido":"Rébecca","email":"wletrange21@businesswire.com","password":"esn4RvhW0Q"},
{"id":75,"nombre":"Lindsay","apellido":"Illustrée","email":"lmccroary22@salon.com","password":"iCFpuPY"},
{"id":76,"nombre":"Jeramey","apellido":"Wá","email":"jgroocock23@aboutads.info","password":"3RwdUy1kgXop"},
{"id":77,"nombre":"Lauree","apellido":"Yáo","email":"lgoad24@shop-pro.jp","password":"5bisGFGGu"},
{"id":78,"nombre":"Merola","apellido":"Gaïa","email":"mwindous25@vkontakte.ru","password":"5l6XpI"},
{"id":79,"nombre":"Dione","apellido":"Zoé","email":"dmcgrayle26@yandex.ru","password":"QYb481"},
{"id":80,"nombre":"Rosamund","apellido":"Yóu","email":"rrehn27@is.gd","password":"VkGNLemmP"},
{"id":81,"nombre":"Nessie","apellido":"Inès","email":"ngarroch28@chronoengine.com","password":"iTkrChztHYti"},
{"id":82,"nombre":"Maury","apellido":"Kévina","email":"mcurnow29@twitter.com","password":"7Je2mTxuZh"},
{"id":83,"nombre":"Symon","apellido":"Pénélope","email":"sgillfillan2a@pinterest.com","password":"yqBLi1oa"},
{"id":84,"nombre":"Camilla","apellido":"Noémie","email":"cgonnelly2b@slate.com","password":"59lQT2"},
{"id":85,"nombre":"Bordie","apellido":"Maéna","email":"bfist2c@homestead.com","password":"yW0XChhjPV51"},
{"id":86,"nombre":"Vittorio","apellido":"Noëlla","email":"vduckham2d@e-recht24.de","password":"yMmm1YCmI"},
{"id":87,"nombre":"Catarina","apellido":"Josée","email":"csawfoot2e@purevolume.com","password":"1bbDNagbp39b"},
{"id":88,"nombre":"Ethelind","apellido":"Maëlla","email":"ekliemke2f@artisteer.com","password":"4lKww6irFA"},
{"id":89,"nombre":"Dora","apellido":"Yáo","email":"dmallan2g@buzzfeed.com","password":"3uCMCNG"},
{"id":90,"nombre":"Fancie","apellido":"Uò","email":"fsawle2h@hud.gov","password":"5FCPyh8eJK"},
{"id":91,"nombre":"Kaile","apellido":"Marie-hélène","email":"kdimmick2i@timesonline.co.uk","password":"LoEPlYvxiFL"},
{"id":92,"nombre":"Annissa","apellido":"Intéressant","email":"abezzant2j@amazon.co.jp","password":"BTNPa1bs1"},
{"id":93,"nombre":"Ferdinande","apellido":"Andréanne","email":"fhearne2k@paypal.com","password":"BlpXGi"},
{"id":94,"nombre":"Bonnibelle","apellido":"Bérangère","email":"bshaw2l@springer.com","password":"tHaRaipc"},
{"id":95,"nombre":"Constancy","apellido":"Maéna","email":"cstoneham2m@amazon.com","password":"VDChUq"},
{"id":96,"nombre":"Cari","apellido":"Hélène","email":"cyeldon2n@xrea.com","password":"lefVFM"},
{"id":97,"nombre":"Marlo","apellido":"Gaïa","email":"msherwell2o@aboutads.info","password":"xDC2Vf"},
{"id":98,"nombre":"Osgood","apellido":"Marie-thérèse","email":"orabjohn2p@spotify.com","password":"oF1xYM49NA7p"},
{"id":99,"nombre":"Maximo","apellido":"Zoé","email":"mcarous2q@jugem.jp","password":"GrBnasjV"},
{"id":100,"nombre":"Celia","apellido":"André","email":"ctweddle2r@google.co.uk","password":"ednGSXQnwcxV"}]
